From drab to fab
…
Step 2. Reshape the data

Remember, our goal is to create a visualisation like the one sketched in Figure 2. In order to do this we need a column for year, a column for percentage, and a column for faculty staff type. However, our dataset is currently not in this format. This presents a great opportunity for some just-in-time teaching for reshaping data from wide to long format. This data wrangling step is quite common when working with time series and with repeated measures data, and hence itâ€™s a useful skill for students to have.

Q2. If the long data will have a row for each year/faculty type combination,
and there are 5 faculty types and 11 years of data, how many rows will the data have?

We can accomplish this task using the pivot_longer() function, which also has a counterpart pivot_wider() for going from long to wide datasets. In the next code chunk we start with the wide dataset and we pivot all of its columns except for faculty type (cols = -faculty_type), placing column names in a new variable called year and placing the values in the original data frame in a new variable called percentage.

staff_long <- staff_wide %>%
  pivot_longer(cols = -faculty_type, names_to = "year", values_to = "percentage") 

## # A tibble: 55 x 3
##   faculty_type              year  percentage
##   <chr>                     <chr>      <dbl>
## 1 Full-Time Tenured Faculty 1975        29  
## 2 Full-Time Tenured Faculty 1989        27.6
## 3 Full-Time Tenured Faculty 1993        25  
## 4 Full-Time Tenured Faculty 1995        24.8
## 5 Full-Time Tenured Faculty 1999        21.8
## # â€¦ with 50 more rows
…
